…
The key column in this extract is
[LANGUAGE](https://usa.ipums.org/usa-action/variables/LANGUAGE), which
“reports the language that the respondent spoke at home, particularly
if a language other than English was spoken.”

The codebook provides the values for every LANGUAGED code:

``` r
info.variables %>% 
  filter(var_name == 'LANGUAGE') %>% 
  pull(val_labels) %>% 
  `[[`(1)
```

    ## # A tibble: 92 x 2
    ##      val lbl            
    ##    <dbl> <chr>          
    ##  1     0 N/A or blank   
    ##  2     1 English        
    ##  3     2 German         
    ##  4     3 Yiddish, Jewish
    ##  5     4 Dutch          
    ##  6     5 Swedish        
    ##  7     6 Danish         
    ##  8     7 Norwegian      
    ##  9     8 Icelandic      
    ## 10     9 Scandinavian   
    ## # … with 82 more rows
…
